Lab10
…
## # weights:  57 (36 variable)
## initial  value 1901.697872 
## iter  10 value 1654.044386
## iter  20 value 1585.209947
## iter  30 value 1579.766502
## iter  40 value 1579.186144
## final  value 1579.184906 
## converged

tidy(model2)

## # A tibble: 36 x 6
##    y.level    term                 estimate std.error statistic    p.value
##    <chr>      <chr>                   <dbl>     <dbl>     <dbl>      <dbl>
##  1 Too Little (Intercept)             2.08    0.310      2.36      1.84e-2
##  2 Too Little ageCent                 1.01    0.00315    2.44      1.47e-2
##  3 Too Little sexMale                 1.33    0.107      2.67      7.61e-3
##  4 Too Little seiCent                 1.01    0.00280    5.22      1.75e-7
##  5 Too Little regionE. Sou. Centr    1.21    0.250      0.751     4.53e-1
##  6 Too Little regionMiddle Atlant    0.969   0.193     -0.161     8.72e-1
##  7 Too Little regionMountain          1.01    0.228      0.0293    9.77e-1
##  8 Too Little regionNew England       0.898   0.300     -0.357     7.21e-1
##  9 Too Little regionPacific           0.854   0.184     -0.856     3.92e-1
## 10 Too Little regionSouth Atlantic    1.31    0.167      1.61      1.07e-1
## # ... with 26 more rows
…
