STA 210: Lab 7
…
32.249

1.742

0.087

From these three subsequent anova outputs, we see that we gain valuable insight by adding the interaction effect of genre and score, but not from adding genre and rating or genre and log.budget.

d

final.model <- lm(log.gross ~ log.budget + rating + genre + score + genre*score, data= movies2014_2)
tidy(final.model)

## # A tibble: 29 x 5
##    term                estimate std.error statistic  p.value
##    <chr>                  <dbl>     <dbl>     <dbl>    <dbl>
##  1 (Intercept)           1.09      1.46      0.748  4.55e- 1
##  2 log.budget            0.773     0.0683   11.3    1.57e-26
##  3 ratingG               0.0144    1.12      0.0129 9.90e- 1
##  4 ratingNOT RATED      -4.34      0.634    -6.85   2.32e-11
##  5 ratingNot specified  -2.67      1.59     -1.68   9.43e- 2
##  6 ratingPG-13          -0.598     0.291    -2.05   4.05e- 2
##  7 ratingR              -1.15      0.289    -3.99   7.59e- 5
##  8 ratingUNRATED        -5.44      1.13     -4.81   2.04e- 6
##  9 genreAdventure        0.0433    2.37      0.0183 9.85e- 1
## 10 genreAnimation        4.45      2.71      1.64   1.01e- 1
## # ... with 19 more rows
…
